{
	"authors": [
		"Simon Arneaud"
	],
	"copyright": "Copyright © 1999-2020, Google LLC",
	"description": "Translation of Google's robots exclusion protocol (robots.txt) parser and matcher",
	"license": "Apache 2.0",
	"name": "unrobotstxt",
	"targetName": "robotstxt"
}
