ALLOWED / Foo
DISALLOWED / Bar
DISALLOWED / Foo Bar
DISALLOWED / Baz
ALLOWED / Foo Baz
DISALLOWED / Bar Baz
DISALLOWED / Foo Bar Baz
ALLOWED /a/ Foo
DISALLOWED /a/ Bar
DISALLOWED /a/ Foo Bar
DISALLOWED /a/ Baz
ALLOWED /a/ Foo Baz
DISALLOWED /a/ Bar Baz
DISALLOWED /a/ Foo Bar Baz
ALLOWED /index.html Foo
DISALLOWED /index.html Bar
DISALLOWED /index.html Foo Bar
DISALLOWED /index.html Baz
ALLOWED /index.html Foo Baz
DISALLOWED /index.html Bar Baz
DISALLOWED /index.html Foo Bar Baz
ALLOWED /index.htm Foo
DISALLOWED /index.htm Bar
DISALLOWED /index.htm Foo Bar
DISALLOWED /index.htm Baz
ALLOWED /index.htm Foo Baz
DISALLOWED /index.htm Bar Baz
DISALLOWED /index.htm Foo Bar Baz
ALLOWED /b/ Foo
DISALLOWED /b/ Bar
ALLOWED /b/ Foo Bar
DISALLOWED /b/ Baz
ALLOWED /b/ Foo Baz
DISALLOWED /b/ Bar Baz
ALLOWED /b/ Foo Bar Baz
DISALLOWED /a/b/ Foo
ALLOWED /a/b/ Bar
ALLOWED /a/b/ Foo Bar
DISALLOWED /a/b/ Baz
DISALLOWED /a/b/ Foo Baz
ALLOWED /a/b/ Bar Baz
ALLOWED /a/b/ Foo Bar Baz
ALLOWED index.html Foo
DISALLOWED index.html Bar
DISALLOWED index.html Foo Bar
DISALLOWED index.html Baz
ALLOWED index.html Foo Baz
DISALLOWED index.html Bar Baz
DISALLOWED index.html Foo Bar Baz
ALLOWED a Foo
DISALLOWED a Bar
DISALLOWED a Foo Bar
DISALLOWED a Baz
ALLOWED a Foo Baz
DISALLOWED a Bar Baz
DISALLOWED a Foo Bar Baz
ALLOWED /a Foo
DISALLOWED /a Bar
DISALLOWED /a Foo Bar
DISALLOWED /a Baz
ALLOWED /a Foo Baz
DISALLOWED /a Bar Baz
DISALLOWED /a Foo Bar Baz
ALLOWED /b Foo
DISALLOWED /b Bar
ALLOWED /b Foo Bar
DISALLOWED /b Baz
ALLOWED /b Foo Baz
DISALLOWED /b Bar Baz
ALLOWED /b Foo Bar Baz
