ALLOWED / Foo
DISALLOWED / Bar
DISALLOWED / Foo Bar
ALLOWED / Baz
ALLOWED / Foo Baz
ALLOWED / Bar Baz
ALLOWED / Foo Bar Baz
ALLOWED /a/ Foo
DISALLOWED /a/ Bar
DISALLOWED /a/ Foo Bar
DISALLOWED /a/ Baz
DISALLOWED /a/ Foo Baz
DISALLOWED /a/ Bar Baz
DISALLOWED /a/ Foo Bar Baz
ALLOWED /index.html Foo
DISALLOWED /index.html Bar
DISALLOWED /index.html Foo Bar
ALLOWED /index.html Baz
ALLOWED /index.html Foo Baz
ALLOWED /index.html Bar Baz
ALLOWED /index.html Foo Bar Baz
ALLOWED /index.htm Foo
DISALLOWED /index.htm Bar
DISALLOWED /index.htm Foo Bar
DISALLOWED /index.htm Baz
DISALLOWED /index.htm Foo Baz
DISALLOWED /index.htm Bar Baz
DISALLOWED /index.htm Foo Bar Baz
ALLOWED /b/ Foo
ALLOWED /b/ Bar
ALLOWED /b/ Foo Bar
DISALLOWED /b/ Baz
DISALLOWED /b/ Foo Baz
DISALLOWED /b/ Bar Baz
DISALLOWED /b/ Foo Bar Baz
ALLOWED /a/b/ Foo
DISALLOWED /a/b/ Bar
DISALLOWED /a/b/ Foo Bar
DISALLOWED /a/b/ Baz
DISALLOWED /a/b/ Foo Baz
DISALLOWED /a/b/ Bar Baz
DISALLOWED /a/b/ Foo Bar Baz
ALLOWED index.html Foo
DISALLOWED index.html Bar
DISALLOWED index.html Foo Bar
ALLOWED index.html Baz
ALLOWED index.html Foo Baz
ALLOWED index.html Bar Baz
ALLOWED index.html Foo Bar Baz
ALLOWED a Foo
DISALLOWED a Bar
DISALLOWED a Foo Bar
ALLOWED a Baz
ALLOWED a Foo Baz
ALLOWED a Bar Baz
ALLOWED a Foo Bar Baz
ALLOWED /a Foo
DISALLOWED /a Bar
DISALLOWED /a Foo Bar
ALLOWED /a Baz
ALLOWED /a Foo Baz
ALLOWED /a Bar Baz
ALLOWED /a Foo Bar Baz
ALLOWED /b Foo
ALLOWED /b Bar
ALLOWED /b Foo Bar
ALLOWED /b Baz
ALLOWED /b Foo Baz
ALLOWED /b Bar Baz
ALLOWED /b Foo Bar Baz
