ALLOWED / Foo
DISALLOWED / Bar
DISALLOWED / Foo Bar
ALLOWED / Baz
ALLOWED / Foo Baz
DISALLOWED / Bar Baz
DISALLOWED / Foo Bar Baz
ALLOWED /a/ Foo
ALLOWED /a/ Bar
ALLOWED /a/ Foo Bar
ALLOWED /a/ Baz
ALLOWED /a/ Foo Baz
ALLOWED /a/ Bar Baz
ALLOWED /a/ Foo Bar Baz
ALLOWED /index.html Foo
DISALLOWED /index.html Bar
DISALLOWED /index.html Foo Bar
ALLOWED /index.html Baz
ALLOWED /index.html Foo Baz
DISALLOWED /index.html Bar Baz
DISALLOWED /index.html Foo Bar Baz
ALLOWED /index.htm Foo
DISALLOWED /index.htm Bar
DISALLOWED /index.htm Foo Bar
ALLOWED /index.htm Baz
ALLOWED /index.htm Foo Baz
DISALLOWED /index.htm Bar Baz
DISALLOWED /index.htm Foo Bar Baz
ALLOWED /b/ Foo
ALLOWED /b/ Bar
ALLOWED /b/ Foo Bar
ALLOWED /b/ Baz
ALLOWED /b/ Foo Baz
ALLOWED /b/ Bar Baz
ALLOWED /b/ Foo Bar Baz
ALLOWED /a/b/ Foo
ALLOWED /a/b/ Bar
ALLOWED /a/b/ Foo Bar
ALLOWED /a/b/ Baz
ALLOWED /a/b/ Foo Baz
ALLOWED /a/b/ Bar Baz
ALLOWED /a/b/ Foo Bar Baz
ALLOWED index.html Foo
DISALLOWED index.html Bar
DISALLOWED index.html Foo Bar
ALLOWED index.html Baz
ALLOWED index.html Foo Baz
DISALLOWED index.html Bar Baz
DISALLOWED index.html Foo Bar Baz
ALLOWED a Foo
DISALLOWED a Bar
DISALLOWED a Foo Bar
ALLOWED a Baz
ALLOWED a Foo Baz
DISALLOWED a Bar Baz
DISALLOWED a Foo Bar Baz
ALLOWED /a Foo
ALLOWED /a Bar
ALLOWED /a Foo Bar
ALLOWED /a Baz
ALLOWED /a Foo Baz
ALLOWED /a Bar Baz
ALLOWED /a Foo Bar Baz
ALLOWED /b Foo
DISALLOWED /b Bar
ALLOWED /b Foo Bar
ALLOWED /b Baz
ALLOWED /b Foo Baz
DISALLOWED /b Bar Baz
ALLOWED /b Foo Bar Baz
