ALLOWED / Foo
ALLOWED / Bar
ALLOWED / Foo Bar
DISALLOWED / Baz
DISALLOWED / Foo Baz
DISALLOWED / Bar Baz
DISALLOWED / Foo Bar Baz
ALLOWED /a/ Foo
ALLOWED /a/ Bar
ALLOWED /a/ Foo Bar
DISALLOWED /a/ Baz
DISALLOWED /a/ Foo Baz
DISALLOWED /a/ Bar Baz
DISALLOWED /a/ Foo Bar Baz
ALLOWED /index.html Foo
ALLOWED /index.html Bar
ALLOWED /index.html Foo Bar
DISALLOWED /index.html Baz
DISALLOWED /index.html Foo Baz
DISALLOWED /index.html Bar Baz
DISALLOWED /index.html Foo Bar Baz
ALLOWED /index.htm Foo
ALLOWED /index.htm Bar
ALLOWED /index.htm Foo Bar
DISALLOWED /index.htm Baz
DISALLOWED /index.htm Foo Baz
DISALLOWED /index.htm Bar Baz
DISALLOWED /index.htm Foo Bar Baz
ALLOWED /b/ Foo
ALLOWED /b/ Bar
ALLOWED /b/ Foo Bar
DISALLOWED /b/ Baz
DISALLOWED /b/ Foo Baz
DISALLOWED /b/ Bar Baz
DISALLOWED /b/ Foo Bar Baz
ALLOWED /a/b/ Foo
ALLOWED /a/b/ Bar
ALLOWED /a/b/ Foo Bar
ALLOWED /a/b/ Baz
ALLOWED /a/b/ Foo Baz
ALLOWED /a/b/ Bar Baz
ALLOWED /a/b/ Foo Bar Baz
ALLOWED index.html Foo
ALLOWED index.html Bar
ALLOWED index.html Foo Bar
DISALLOWED index.html Baz
DISALLOWED index.html Foo Baz
DISALLOWED index.html Bar Baz
DISALLOWED index.html Foo Bar Baz
ALLOWED a Foo
ALLOWED a Bar
ALLOWED a Foo Bar
DISALLOWED a Baz
DISALLOWED a Foo Baz
DISALLOWED a Bar Baz
DISALLOWED a Foo Bar Baz
ALLOWED /a Foo
ALLOWED /a Bar
ALLOWED /a Foo Bar
DISALLOWED /a Baz
DISALLOWED /a Foo Baz
DISALLOWED /a Bar Baz
DISALLOWED /a Foo Bar Baz
ALLOWED /b Foo
ALLOWED /b Bar
ALLOWED /b Foo Bar
DISALLOWED /b Baz
DISALLOWED /b Foo Baz
DISALLOWED /b Bar Baz
DISALLOWED /b Foo Bar Baz
