ALLOWED / Foo
ALLOWED / Bar
ALLOWED / Foo Bar
ALLOWED / Baz
ALLOWED / Foo Baz
ALLOWED / Bar Baz
ALLOWED / Foo Bar Baz
ALLOWED /a/ Foo
ALLOWED /a/ Bar
ALLOWED /a/ Foo Bar
ALLOWED /a/ Baz
ALLOWED /a/ Foo Baz
ALLOWED /a/ Bar Baz
ALLOWED /a/ Foo Bar Baz
DISALLOWED /index.html Foo
DISALLOWED /index.html Bar
DISALLOWED /index.html Foo Bar
DISALLOWED /index.html Baz
DISALLOWED /index.html Foo Baz
DISALLOWED /index.html Bar Baz
DISALLOWED /index.html Foo Bar Baz
DISALLOWED /index.htm Foo
DISALLOWED /index.htm Bar
DISALLOWED /index.htm Foo Bar
DISALLOWED /index.htm Baz
DISALLOWED /index.htm Foo Baz
DISALLOWED /index.htm Bar Baz
DISALLOWED /index.htm Foo Bar Baz
ALLOWED /b/ Foo
ALLOWED /b/ Bar
ALLOWED /b/ Foo Bar
DISALLOWED /b/ Baz
DISALLOWED /b/ Foo Baz
DISALLOWED /b/ Bar Baz
DISALLOWED /b/ Foo Bar Baz
ALLOWED /a/b/ Foo
ALLOWED /a/b/ Bar
ALLOWED /a/b/ Foo Bar
DISALLOWED /a/b/ Baz
DISALLOWED /a/b/ Foo Baz
DISALLOWED /a/b/ Bar Baz
DISALLOWED /a/b/ Foo Bar Baz
ALLOWED index.html Foo
ALLOWED index.html Bar
ALLOWED index.html Foo Bar
ALLOWED index.html Baz
ALLOWED index.html Foo Baz
ALLOWED index.html Bar Baz
ALLOWED index.html Foo Bar Baz
ALLOWED a Foo
ALLOWED a Bar
ALLOWED a Foo Bar
ALLOWED a Baz
ALLOWED a Foo Baz
ALLOWED a Bar Baz
ALLOWED a Foo Bar Baz
ALLOWED /a Foo
ALLOWED /a Bar
ALLOWED /a Foo Bar
ALLOWED /a Baz
ALLOWED /a Foo Baz
ALLOWED /a Bar Baz
ALLOWED /a Foo Bar Baz
ALLOWED /b Foo
ALLOWED /b Bar
ALLOWED /b Foo Bar
DISALLOWED /b Baz
DISALLOWED /b Foo Baz
DISALLOWED /b Bar Baz
DISALLOWED /b Foo Bar Baz
