ALLOWED / Foo
ALLOWED / Bar
ALLOWED / Foo Bar
ALLOWED / Baz
ALLOWED / Foo Baz
ALLOWED / Bar Baz
ALLOWED / Foo Bar Baz
DISALLOWED /a/ Foo
DISALLOWED /a/ Bar
DISALLOWED /a/ Foo Bar
ALLOWED /a/ Baz
DISALLOWED /a/ Foo Baz
DISALLOWED /a/ Bar Baz
DISALLOWED /a/ Foo Bar Baz
ALLOWED /index.html Foo
ALLOWED /index.html Bar
ALLOWED /index.html Foo Bar
ALLOWED /index.html Baz
ALLOWED /index.html Foo Baz
ALLOWED /index.html Bar Baz
ALLOWED /index.html Foo Bar Baz
ALLOWED /index.htm Foo
ALLOWED /index.htm Bar
ALLOWED /index.htm Foo Bar
ALLOWED /index.htm Baz
ALLOWED /index.htm Foo Baz
ALLOWED /index.htm Bar Baz
ALLOWED /index.htm Foo Bar Baz
DISALLOWED /b/ Foo
DISALLOWED /b/ Bar
DISALLOWED /b/ Foo Bar
ALLOWED /b/ Baz
DISALLOWED /b/ Foo Baz
DISALLOWED /b/ Bar Baz
DISALLOWED /b/ Foo Bar Baz
DISALLOWED /a/b/ Foo
DISALLOWED /a/b/ Bar
DISALLOWED /a/b/ Foo Bar
ALLOWED /a/b/ Baz
DISALLOWED /a/b/ Foo Baz
DISALLOWED /a/b/ Bar Baz
DISALLOWED /a/b/ Foo Bar Baz
ALLOWED index.html Foo
ALLOWED index.html Bar
ALLOWED index.html Foo Bar
ALLOWED index.html Baz
ALLOWED index.html Foo Baz
ALLOWED index.html Bar Baz
ALLOWED index.html Foo Bar Baz
ALLOWED a Foo
ALLOWED a Bar
ALLOWED a Foo Bar
ALLOWED a Baz
ALLOWED a Foo Baz
ALLOWED a Bar Baz
ALLOWED a Foo Bar Baz
DISALLOWED /a Foo
DISALLOWED /a Bar
DISALLOWED /a Foo Bar
ALLOWED /a Baz
DISALLOWED /a Foo Baz
DISALLOWED /a Bar Baz
DISALLOWED /a Foo Bar Baz
DISALLOWED /b Foo
DISALLOWED /b Bar
DISALLOWED /b Foo Bar
ALLOWED /b Baz
DISALLOWED /b Foo Baz
DISALLOWED /b Bar Baz
DISALLOWED /b Foo Bar Baz
