DISALLOWED / Foo
ALLOWED / Bar
DISALLOWED / Foo Bar
ALLOWED / Baz
DISALLOWED / Foo Baz
ALLOWED / Bar Baz
DISALLOWED / Foo Bar Baz
ALLOWED /a/ Foo
ALLOWED /a/ Bar
ALLOWED /a/ Foo Bar
ALLOWED /a/ Baz
ALLOWED /a/ Foo Baz
ALLOWED /a/ Bar Baz
ALLOWED /a/ Foo Bar Baz
DISALLOWED /index.html Foo
ALLOWED /index.html Bar
DISALLOWED /index.html Foo Bar
ALLOWED /index.html Baz
DISALLOWED /index.html Foo Baz
ALLOWED /index.html Bar Baz
DISALLOWED /index.html Foo Bar Baz
DISALLOWED /index.htm Foo
ALLOWED /index.htm Bar
DISALLOWED /index.htm Foo Bar
ALLOWED /index.htm Baz
DISALLOWED /index.htm Foo Baz
ALLOWED /index.htm Bar Baz
DISALLOWED /index.htm Foo Bar Baz
ALLOWED /b/ Foo
DISALLOWED /b/ Bar
ALLOWED /b/ Foo Bar
ALLOWED /b/ Baz
ALLOWED /b/ Foo Baz
DISALLOWED /b/ Bar Baz
ALLOWED /b/ Foo Bar Baz
ALLOWED /a/b/ Foo
ALLOWED /a/b/ Bar
ALLOWED /a/b/ Foo Bar
ALLOWED /a/b/ Baz
ALLOWED /a/b/ Foo Baz
ALLOWED /a/b/ Bar Baz
ALLOWED /a/b/ Foo Bar Baz
DISALLOWED index.html Foo
ALLOWED index.html Bar
DISALLOWED index.html Foo Bar
ALLOWED index.html Baz
DISALLOWED index.html Foo Baz
ALLOWED index.html Bar Baz
DISALLOWED index.html Foo Bar Baz
DISALLOWED a Foo
ALLOWED a Bar
DISALLOWED a Foo Bar
ALLOWED a Baz
DISALLOWED a Foo Baz
ALLOWED a Bar Baz
DISALLOWED a Foo Bar Baz
ALLOWED /a Foo
ALLOWED /a Bar
ALLOWED /a Foo Bar
ALLOWED /a Baz
ALLOWED /a Foo Baz
ALLOWED /a Bar Baz
ALLOWED /a Foo Bar Baz
DISALLOWED /b Foo
ALLOWED /b Bar
DISALLOWED /b Foo Bar
ALLOWED /b Baz
DISALLOWED /b Foo Baz
ALLOWED /b Bar Baz
DISALLOWED /b Foo Bar Baz
