DISALLOWED / Foo
ALLOWED / Bar
DISALLOWED / Foo Bar
DISALLOWED / Baz
DISALLOWED / Foo Baz
DISALLOWED / Bar Baz
DISALLOWED / Foo Bar Baz
DISALLOWED /a/ Foo
ALLOWED /a/ Bar
DISALLOWED /a/ Foo Bar
DISALLOWED /a/ Baz
DISALLOWED /a/ Foo Baz
DISALLOWED /a/ Bar Baz
DISALLOWED /a/ Foo Bar Baz
DISALLOWED /index.html Foo
ALLOWED /index.html Bar
DISALLOWED /index.html Foo Bar
DISALLOWED /index.html Baz
DISALLOWED /index.html Foo Baz
DISALLOWED /index.html Bar Baz
DISALLOWED /index.html Foo Bar Baz
DISALLOWED /index.htm Foo
ALLOWED /index.htm Bar
DISALLOWED /index.htm Foo Bar
DISALLOWED /index.htm Baz
DISALLOWED /index.htm Foo Baz
DISALLOWED /index.htm Bar Baz
DISALLOWED /index.htm Foo Bar Baz
ALLOWED /b/ Foo
ALLOWED /b/ Bar
ALLOWED /b/ Foo Bar
ALLOWED /b/ Baz
ALLOWED /b/ Foo Baz
ALLOWED /b/ Bar Baz
ALLOWED /b/ Foo Bar Baz
DISALLOWED /a/b/ Foo
ALLOWED /a/b/ Bar
DISALLOWED /a/b/ Foo Bar
DISALLOWED /a/b/ Baz
DISALLOWED /a/b/ Foo Baz
DISALLOWED /a/b/ Bar Baz
DISALLOWED /a/b/ Foo Bar Baz
DISALLOWED index.html Foo
ALLOWED index.html Bar
DISALLOWED index.html Foo Bar
DISALLOWED index.html Baz
DISALLOWED index.html Foo Baz
DISALLOWED index.html Bar Baz
DISALLOWED index.html Foo Bar Baz
DISALLOWED a Foo
ALLOWED a Bar
DISALLOWED a Foo Bar
DISALLOWED a Baz
DISALLOWED a Foo Baz
DISALLOWED a Bar Baz
DISALLOWED a Foo Bar Baz
DISALLOWED /a Foo
ALLOWED /a Bar
DISALLOWED /a Foo Bar
DISALLOWED /a Baz
DISALLOWED /a Foo Baz
DISALLOWED /a Bar Baz
DISALLOWED /a Foo Bar Baz
DISALLOWED /b Foo
ALLOWED /b Bar
DISALLOWED /b Foo Bar
DISALLOWED /b Baz
DISALLOWED /b Foo Baz
DISALLOWED /b Bar Baz
DISALLOWED /b Foo Bar Baz
