ALLOWED / Foo
DISALLOWED / Bar
ALLOWED / Foo Bar
DISALLOWED / Baz
ALLOWED / Foo Baz
DISALLOWED / Bar Baz
ALLOWED / Foo Bar Baz
ALLOWED /a/ Foo
DISALLOWED /a/ Bar
ALLOWED /a/ Foo Bar
DISALLOWED /a/ Baz
ALLOWED /a/ Foo Baz
DISALLOWED /a/ Bar Baz
ALLOWED /a/ Foo Bar Baz
ALLOWED /index.html Foo
DISALLOWED /index.html Bar
ALLOWED /index.html Foo Bar
DISALLOWED /index.html Baz
ALLOWED /index.html Foo Baz
DISALLOWED /index.html Bar Baz
ALLOWED /index.html Foo Bar Baz
ALLOWED /index.htm Foo
DISALLOWED /index.htm Bar
ALLOWED /index.htm Foo Bar
DISALLOWED /index.htm Baz
ALLOWED /index.htm Foo Baz
DISALLOWED /index.htm Bar Baz
ALLOWED /index.htm Foo Bar Baz
DISALLOWED /b/ Foo
DISALLOWED /b/ Bar
DISALLOWED /b/ Foo Bar
DISALLOWED /b/ Baz
DISALLOWED /b/ Foo Baz
DISALLOWED /b/ Bar Baz
DISALLOWED /b/ Foo Bar Baz
ALLOWED /a/b/ Foo
ALLOWED /a/b/ Bar
ALLOWED /a/b/ Foo Bar
ALLOWED /a/b/ Baz
ALLOWED /a/b/ Foo Baz
ALLOWED /a/b/ Bar Baz
ALLOWED /a/b/ Foo Bar Baz
ALLOWED index.html Foo
DISALLOWED index.html Bar
ALLOWED index.html Foo Bar
DISALLOWED index.html Baz
ALLOWED index.html Foo Baz
DISALLOWED index.html Bar Baz
ALLOWED index.html Foo Bar Baz
ALLOWED a Foo
DISALLOWED a Bar
ALLOWED a Foo Bar
DISALLOWED a Baz
ALLOWED a Foo Baz
DISALLOWED a Bar Baz
ALLOWED a Foo Bar Baz
ALLOWED /a Foo
DISALLOWED /a Bar
ALLOWED /a Foo Bar
DISALLOWED /a Baz
ALLOWED /a Foo Baz
DISALLOWED /a Bar Baz
ALLOWED /a Foo Bar Baz
DISALLOWED /b Foo
DISALLOWED /b Bar
DISALLOWED /b Foo Bar
DISALLOWED /b Baz
DISALLOWED /b Foo Baz
DISALLOWED /b Bar Baz
DISALLOWED /b Foo Bar Baz
